<svg width="417" height="349" viewBox="0 0 417 349" fill="none" xmlns="http://www.w3.org/2000/svg">
<g clip-path="url(#clip0_138_592)">
<g clip-path="url(#clip1_138_592)">
<rect x="1" y="221" width="427" height="141" fill="#3D5056"/>
<path d="M410.876 210.153C393.75 173.238 387.895 132.058 394.05 91.8056C395.671 81.366 398.299 70.6326 405.047 62.5249C411.524 54.7381 422.76 50.1555 432.069 53.8071C425.96 40.4254 410.57 32.7922 395.792 32.4171C380.447 32.0284 365.669 38.0663 352.016 45.1164C338.364 52.1666 325.166 60.3963 310.509 64.997C286.427 72.5533 260.134 69.6699 236.012 62.2447C211.893 54.8149 189.368 43.0511 166.411 32.5482C143.45 22.0452 119.521 12.6495 94.3851 10.4441C69.2494 8.2432 42.5068 14.0099 23.6056 30.7856C4.70434 47.5614 -4.24438 76.5574 6.37885 99.5292C12.7933 113.404 25.3836 124.078 29.804 138.712C35.3497 157.083 26.617 176.656 16.1153 192.695C5.60911 208.734 -7.20178 224.141 -11.1045 242.932C-14.7101 260.277 -9.88009 278.192 -0.278672 293.268C4.1859 300.258 9.60082 306.587 15.8092 312.073C35.2056 329.206 60.2692 338.353 85.2068 345.123C175.356 369.604 272.522 367.399 361.478 338.85C377.229 333.798 392.965 327.81 406.186 317.845C414.81 311.346 422.314 302.922 427.068 293.282C429.633 288.15 431.326 282.623 432.078 276.931C435.067 253.39 420.901 231.643 410.876 210.153Z" fill="#D5DDBD"/>
<g opacity="0.17">
<path d="M338.877 89.0097C343.218 87.1098 334.416 86.0038 324.43 85.6402C314.444 85.2765 302.364 85.2966 295.982 84.2623C289.81 83.262 290.265 81.4834 289.746 79.8718C289.227 78.2603 286.854 76.608 277.224 76.2497C265.223 75.8033 245.432 77.5216 236.373 76.49C227.919 75.5274 232.944 72.5077 220.617 72.3921C213.577 72.3261 204.508 73.3217 196.676 73.5619C189.322 73.7875 183.882 73.3204 180.064 72.6924C176.246 72.0644 173.587 71.2682 169.29 70.7135C158.01 69.2572 135.939 69.7467 116.24 71.6132C96.5417 73.4797 79.6562 76.5385 70.1334 79.568C60.6105 82.5976 57.9796 85.5804 60.1978 88.1099C61.6143 89.7251 65.239 91.2354 74.0316 91.8844C90.4776 93.0984 119.758 91.0088 136.752 92.1133C146.224 92.7289 150.426 94.2551 158.736 95.0903C167.664 95.9875 180.734 96.035 193.575 96.0138C220.312 95.9694 247.733 95.6936 275.694 95.1879C287.372 94.9766 299.609 94.7019 312.037 93.6952C324.464 92.6884 337.139 90.7459 339.761 88.9249" fill="white"/>
</g>
<path d="M229.942 119.801C226.49 114.069 222.399 107.948 215.992 106.076C208.573 103.909 200.952 108.215 194.487 112.464C175.154 125.173 156.536 138.945 138.718 153.718L138.738 153.941C152.61 152.98 166.481 152.02 180.353 151.059C190.376 150.365 200.742 149.576 209.599 144.815C212.96 143.009 216.237 140.596 220.045 140.428C224.777 140.219 228.903 143.537 232.145 147.004C251.324 167.508 256.874 198.865 278.391 216.88C264.823 183.285 248.623 150.824 229.942 119.801Z" fill="#F2F2F2"/>
<path d="M347.833 293.718C345.712 291.029 344.846 290.399 342.753 287.686C325.719 265.566 309.708 242.7 294.72 219.086C284.54 203.048 274.865 186.703 265.694 170.049C261.328 162.132 257.082 154.152 252.956 146.111C249.753 139.875 246.623 133.603 243.564 127.293C242.689 125.491 241.839 123.68 240.993 121.866C239 117.598 237.044 113.31 234.943 109.101C232.55 104.304 229.637 99.274 225.242 96.0507C223.242 94.5236 220.85 93.5996 218.346 93.3868C214.769 93.1547 211.467 94.6379 208.364 96.2579C185.66 108.144 164.404 123.047 145.179 140.004C125.904 156.999 108.675 176.2 93.8442 197.215C93.3904 197.865 92.3175 197.244 92.7755 196.589C94.5788 194.029 96.4179 191.496 98.2927 188.991C121.605 157.863 150.189 131.094 182.738 109.909C188.214 106.346 193.793 102.95 199.476 99.7214C202.339 98.0932 205.216 96.4857 208.141 94.9776C211.009 93.4986 214.055 92.1687 217.331 92.119C228.481 91.945 234.254 104.623 238.22 113.153C239.466 115.838 240.727 118.514 242.004 121.182C246.828 131.312 251.837 141.349 257.033 151.294C260.239 157.434 263.515 163.538 266.862 169.606C277.277 188.502 288.348 207.016 300.073 225.147C315.605 249.164 331.013 270.38 348.708 292.84C349.195 293.461 348.324 294.348 347.833 293.718Z" fill="#E4E4E4"/>
<path d="M144.077 133.744C143.429 133.019 142.785 132.294 142.133 131.569C136.991 125.86 131.474 120.217 124.414 116.944C121.047 115.334 117.372 114.479 113.643 114.437C109.789 114.45 106.022 115.465 102.461 116.886C100.777 117.561 99.1303 118.328 97.5087 119.144C95.6558 120.08 93.8359 121.079 92.0245 122.085C88.6242 123.975 85.2679 125.947 81.9558 128.002C75.3656 132.091 68.9818 136.492 62.8044 141.205C59.6021 143.65 56.4659 146.174 53.3958 148.779C50.5402 151.198 47.7425 153.683 45.0024 156.232C44.4165 156.775 43.5416 155.896 44.1276 155.354C44.8497 154.678 45.5801 154.007 46.3105 153.344C48.3738 151.472 50.4701 149.635 52.5995 147.834C56.4824 144.545 60.4659 141.382 64.5499 138.347C70.9008 133.624 77.4702 129.221 84.2582 125.139C87.6503 123.1 91.0891 121.148 94.5746 119.28C95.627 118.717 96.6917 118.166 97.7686 117.644C100.212 116.406 102.752 115.369 105.361 114.541C109.058 113.34 112.97 112.954 116.829 113.41C120.555 113.954 124.145 115.201 127.41 117.085C134.342 120.975 139.719 126.991 144.952 132.861C145.48 133.458 144.609 134.34 144.077 133.744Z" fill="#E4E4E4"/>
<path d="M286.122 192.905L302.734 186.805L310.982 183.776C313.668 182.79 316.348 181.667 319.125 180.96C321.538 180.268 324.1 180.301 326.495 181.055C328.631 181.848 330.586 183.065 332.244 184.632C333.938 186.198 335.514 187.888 336.959 189.688C338.755 191.855 340.524 194.044 342.301 196.226C349.636 205.232 356.923 214.277 364.161 223.361C371.4 232.445 378.59 241.567 385.732 250.728C392.891 259.911 400.001 269.133 407.062 278.393C407.927 279.528 408.791 280.663 409.654 281.798C410.131 282.426 411.207 281.807 410.723 281.171C403.61 271.818 396.448 262.503 389.236 253.226C382.006 243.927 374.727 234.667 367.397 225.447C360.067 216.228 352.688 207.048 345.26 197.908C343.409 195.631 341.555 193.356 339.699 191.084C338.132 189.168 336.584 187.231 334.866 185.447C331.713 182.172 327.773 179.279 323.057 179.2C320.284 179.154 317.601 180.037 315.025 180.973C312.247 181.982 309.477 183.009 306.703 184.028L289.975 190.171L285.793 191.706C285.051 191.979 285.371 193.181 286.122 192.905Z" fill="#E4E4E4"/>
<path d="M122.228 124.127C113.786 119.771 102.975 120.625 95.217 126.067C110.014 128.63 124.649 132.059 139.047 136.337C133.068 132.82 128.391 127.308 122.228 124.127Z" fill="#F2F2F2"/>
<path d="M95.134 126.052L93.5088 127.378C94.0585 126.914 94.63 126.479 95.2171 126.067C95.1893 126.062 95.1617 126.057 95.134 126.052Z" fill="#F2F2F2"/>
<path d="M331.619 192.966C329.983 190.967 328.215 188.875 325.769 188.063L323.486 188.153C340.869 218.993 364.347 245.94 392.477 267.341C372.191 242.55 351.905 217.758 331.619 192.966Z" fill="#F2F2F2"/>
<path d="M427.068 293.282C422.314 302.922 414.81 311.346 406.186 317.845C392.965 327.81 377.229 333.798 361.478 338.85C272.522 367.399 175.356 369.604 85.2068 345.123C60.2692 338.353 35.2056 329.206 15.8092 312.073C9.60081 306.588 4.18589 300.258 -0.278687 293.268C25.5367 279.024 56.8257 273.655 86.6832 274.31C129.487 275.25 171.291 286.72 213.694 292.654C263.629 299.632 314.332 298.931 364.058 290.575C381.307 287.669 399.159 283.868 416.044 288.469C419.926 289.545 423.637 291.165 427.068 293.282Z" fill="#3D5056"/>
<path d="M30.7178 46.0972C43.3966 46.0972 53.6748 35.778 53.6748 23.0486C53.6748 10.3192 43.3966 0 30.7178 0C18.039 0 7.7608 10.3192 7.7608 23.0486C7.7608 35.778 18.039 46.0972 30.7178 46.0972Z" fill="#CCCCCC"/>
<path d="M101.007 21.8473C94.931 15.4485 87.8749 9.61106 79.5218 6.52638C77.195 5.66347 74.7824 5.05477 72.3258 4.71081C72.306 4.7081 72.2873 4.71211 72.2677 4.71051C72.2277 4.70017 72.1872 4.69218 72.1463 4.68659C68.7104 4.24713 65.2229 4.45853 61.8646 5.30981C60.2223 5.72357 58.6202 6.28392 57.0773 6.98417C55.529 7.74255 54.0287 8.59615 52.5852 9.54011C49.5296 11.3764 46.1655 12.6365 42.6586 13.2581C40.8983 13.5762 39.1155 13.7519 37.3272 13.7834C35.7755 13.8147 34.3121 13.8688 32.842 14.4316C31.2716 15.0245 29.8609 15.9777 28.7226 17.2152C27.5843 18.4526 26.7498 19.9401 26.2858 21.5588C26.25 21.703 26.2608 21.8548 26.3166 21.9924C26.3723 22.13 26.4702 22.2463 26.5961 22.3244C26.9938 22.6104 27.3815 22.9348 27.7993 23.1896C28.171 23.3604 28.568 23.4691 28.9746 23.5114C29.6389 23.6521 30.304 23.7888 30.97 23.9213C33.4235 24.4093 35.8872 24.8414 38.3611 25.2174C43.3669 25.9782 48.3998 26.5141 53.4597 26.8251C63.5961 27.4416 73.7673 27.1347 83.8485 25.9082C89.5142 25.2192 95.1415 24.242 100.709 22.9804C100.821 22.9473 100.924 22.8855 101.006 22.8011C101.087 22.7166 101.146 22.6123 101.176 22.4983C101.206 22.3843 101.206 22.2645 101.177 22.1504C101.147 22.0364 101.088 21.932 101.007 21.8473Z" fill="#F0F0F0"/>
<path d="M31.8073 37.2581C29.4805 36.3952 27.0679 35.7865 24.6112 35.4425C24.5915 35.4398 24.5728 35.4438 24.5531 35.4422C24.5132 35.4319 24.4726 35.4239 24.4317 35.4183C20.9958 34.9788 17.5083 35.1902 14.15 36.0415C12.5077 36.4553 10.9056 37.0156 9.36273 37.7159C7.81441 38.4742 6.31419 39.3278 4.87063 40.2718C1.8151 42.1081 -1.54905 43.3682 -5.05593 43.9898C-6.8162 44.3079 -8.59908 44.4836 -10.3874 44.5151C-11.9391 44.5464 -13.4024 44.6005 -14.8725 45.1633C-16.4429 45.7562 -17.8536 46.7094 -18.9919 47.9469C-20.1302 49.1843 -20.9647 50.6718 -21.4288 52.2905C-21.4645 52.4347 -21.4538 52.5865 -21.398 52.7241C-21.3422 52.8617 -21.2443 52.978 -21.1185 53.0561C-20.7208 53.3421 -20.3331 53.6665 -19.9152 53.9213C-19.5435 54.0921 -19.1465 54.2008 -18.7399 54.2431C-18.0756 54.3838 -17.4105 54.5205 -16.7445 54.653C-14.291 55.141 -11.8273 55.5731 -9.35345 55.9491C-4.34763 56.7099 0.685228 57.2458 5.74512 57.5568C15.8815 58.1733 26.0527 57.8664 36.134 56.6399C41.7997 55.9509 47.4269 54.9737 52.994 53.7121C53.1067 53.679 53.209 53.6172 53.291 53.5327C53.3729 53.4483 53.4317 53.344 53.4617 53.23C53.4917 53.116 53.4918 52.9962 53.4621 52.8821C53.4323 52.7681 53.3737 52.6637 53.292 52.579C47.2164 46.1802 40.1604 40.3427 31.8073 37.2581Z" fill="#F0F0F0"/>
<path d="M410.074 291.465H368.245L369.712 286.693C378.805 283.388 373.698 276.285 382.347 271.943C403.502 261.323 411.692 229.633 408.594 217.106L422.457 216.517C422.457 216.517 441.602 271.104 410.074 291.465Z" fill="#2E3C41"/>
<path d="M466 220.111C465.999 225.489 464.099 230.693 460.637 234.797C457.175 238.902 452.375 241.64 447.091 242.526L446.979 242.545L446.893 242.472C445.452 241.266 443.862 240.253 442.162 239.457C443.117 240.336 443.959 241.332 444.667 242.422L444.908 242.786L444.474 242.807C444.099 242.825 443.727 242.834 443.367 242.834C441.254 242.836 439.15 242.543 437.117 241.964C427.881 239.326 417.964 238.875 407.64 240.623C405.869 240.922 404.077 241.072 402.282 241.072C394.696 241.069 387.359 238.356 381.584 233.417C375.809 228.478 371.974 221.636 370.765 214.117C369.557 206.598 371.053 198.893 374.987 192.381C378.921 185.869 385.035 180.975 392.235 178.576L392.455 178.503L392.541 178.718C393.222 180.334 393.646 182.047 393.796 183.795C394.219 181.948 394.4 180.053 394.335 178.159L394.328 177.959L394.522 177.91C397.06 177.275 399.666 176.954 402.282 176.954L402.565 176.956C404.569 176.962 406.551 176.544 408.383 175.729C410.214 174.914 411.854 173.721 413.196 172.227C415.396 169.8 418.093 167.88 421.103 166.599C424.112 165.318 427.363 164.707 430.63 164.808C433.897 164.909 437.104 165.719 440.029 167.183C442.955 168.646 445.53 170.729 447.577 173.288L447.673 173.406L447.61 173.545C446.287 176.471 444.847 178.603 443.127 180.162C445.334 179.123 447.354 177.723 449.105 176.021L449.331 175.801L449.489 176.074C451.507 179.548 452.57 183.499 452.568 187.52L452.568 187.635C452.568 187.675 452.568 187.716 452.568 187.757C452.568 193.909 454.937 199.74 459.08 203.773C461.259 205.896 462.993 208.435 464.181 211.241C465.37 214.046 465.988 217.062 466 220.111Z" fill="#3D5056"/>
<g opacity="0.15">
<path d="M459.08 203.773C457.991 202.71 457.023 201.528 456.195 200.25C457.679 203.422 458.41 206.897 458.332 210.401C458.254 213.905 457.369 217.344 455.747 220.447C454.124 223.55 451.807 226.234 448.979 228.288C446.15 230.343 442.886 231.711 439.442 232.287L439.33 232.305L439.244 232.233C437.803 231.027 436.213 230.013 434.513 229.218C435.468 230.097 436.31 231.093 437.018 232.183L437.259 232.546L436.825 232.567C436.45 232.586 436.078 232.595 435.718 232.595C433.605 232.597 431.501 232.304 429.468 231.725C420.232 229.087 410.315 228.636 399.991 230.384C398.22 230.683 396.428 230.833 394.633 230.833C386.809 230.839 379.257 227.947 373.423 222.712C376.011 228.2 380.096 232.838 385.204 236.088C390.313 239.338 396.235 241.066 402.282 241.072C404.077 241.072 405.869 240.922 407.64 240.623C417.964 238.875 427.882 239.326 437.117 241.964C439.15 242.543 441.254 242.836 443.367 242.834C443.727 242.834 444.099 242.825 444.474 242.807L444.908 242.786L444.667 242.422C443.959 241.333 443.117 240.336 442.162 239.457C443.862 240.253 445.452 241.266 446.893 242.472L446.979 242.545L447.091 242.526C451.226 241.836 455.089 240.005 458.248 237.239C461.407 234.472 463.739 230.879 464.982 226.86C466.225 222.84 466.332 218.553 465.29 214.477C464.248 210.4 462.098 206.694 459.08 203.773Z" fill="black"/>
</g>
<path d="M10.3341 253.522L-6.23631 240.892L-14.3131 249.001L12.6816 267.548L10.3341 253.522Z" fill="#2E3C41"/>
<path d="M25.7892 288.301H82.4734L80.4853 281.834C68.1635 277.356 75.0847 267.73 63.3639 261.846C34.6954 247.455 23.5967 204.509 27.7947 187.533L9.00769 186.735C9.00769 186.735 -16.9373 260.709 25.7892 288.301Z" fill="#2E3C41"/>
<path d="M-25.8218 251.164C-25.9011 249.916 -26.2278 248.697 -26.7827 247.577C-27.3375 246.458 -28.1094 245.461 -29.0531 244.646C-29.0658 244.634 -29.0786 244.623 -29.0915 244.612L-29.1276 244.58C-30.394 243.463 -31.342 242.028 -31.8747 240.422L-31.9167 240.295L-31.7846 240.285C-30.762 240.202 -29.7601 239.95 -28.8196 239.539C-29.9459 239.633 -31.0794 239.491 -32.1483 239.122L-32.2095 239.104L-32.2203 239.04C-32.4566 237.68 -32.3964 236.284 -32.044 234.949C-31.6915 233.613 -31.0552 232.371 -30.1787 231.306C-29.3023 230.242 -28.2065 229.38 -26.9668 228.781C-25.7271 228.182 -24.3729 227.86 -22.9974 227.837C-22.1543 227.827 -21.3228 227.638 -20.5573 227.283C-19.7917 226.929 -19.1092 226.416 -18.5542 225.779L-18.4759 225.688C-17.7488 224.858 -16.9234 224.121 -16.0179 223.492L-15.9487 223.444L-15.8877 223.502C-15.3096 224.049 -14.6628 224.518 -13.9638 224.897C-14.4722 224.364 -14.8938 223.753 -15.213 223.088L-15.2566 223.001L-15.1726 222.951C-12.4163 221.334 -9.17638 220.754 -6.0331 221.316C-2.88983 221.878 -0.0484555 223.545 1.98225 226.018C4.01295 228.492 5.10036 231.61 5.04975 234.815C4.99915 238.021 3.81383 241.103 1.70606 243.511C1.20712 244.08 0.661778 244.607 0.0756846 245.086C-3.20704 247.703 -5.86282 251.026 -7.69585 254.811C-8.07872 255.617 -8.57123 256.366 -9.15925 257.036C-9.25918 257.15 -9.36562 257.266 -9.47559 257.379L-9.60291 257.511L-9.6504 257.334C-9.79645 256.806 -9.876 256.262 -9.88717 255.715C-10.1094 256.475 -10.2324 257.262 -10.2531 258.054L-10.2544 258.101L-10.2912 258.132C-11.6581 259.252 -13.308 259.969 -15.0569 260.202C-16.8058 260.435 -18.5849 260.176 -20.1956 259.453C-21.8064 258.731 -23.1854 257.573 -24.1789 256.109C-25.1724 254.645 -25.7412 252.933 -25.8218 251.164Z" fill="#3D5056"/>
<path opacity="0.15" d="M-29.9449 230.984C-29.068 229.985 -27.9934 229.181 -26.7897 228.622C-25.5859 228.063 -24.2794 227.762 -22.9533 227.739C-22.1103 227.728 -21.2788 227.539 -20.5132 227.185C-19.7477 226.83 -19.0652 226.317 -18.5102 225.68L-18.4319 225.59C-17.7048 224.76 -16.8794 224.022 -15.9739 223.393L-15.9047 223.345L-15.8437 223.403C-15.2656 223.95 -14.6188 224.419 -13.9198 224.799C-14.4282 224.265 -14.8498 223.655 -15.169 222.989L-15.2126 222.902L-15.1286 222.853C-13.3013 221.779 -11.247 221.154 -9.13342 221.029C-7.0198 220.905 -4.90672 221.283 -2.96658 222.134C-1.02644 222.985 0.685794 224.285 2.03041 225.927C3.37503 227.569 4.31395 229.507 4.77055 231.583C3.89116 230.032 2.71395 228.672 1.30713 227.581C-0.0996943 226.49 -1.70816 225.69 -3.42504 225.228C-5.14192 224.766 -6.93307 224.651 -8.69472 224.888C-10.4564 225.126 -12.1535 225.713 -13.6877 226.614L-13.7717 226.663L-13.7281 226.751C-13.4089 227.416 -12.9873 228.026 -12.4788 228.56C-13.1779 228.181 -13.8247 227.712 -14.4028 227.164L-14.4638 227.107L-14.533 227.154C-15.4384 227.783 -16.2639 228.521 -16.9909 229.351L-17.0692 229.441C-17.6242 230.079 -18.3067 230.591 -19.0723 230.946C-19.8379 231.301 -20.6693 231.489 -21.5124 231.5C-23.7169 231.537 -25.8402 232.341 -27.5203 233.775C-29.2004 235.208 -30.3332 237.182 -30.7257 239.36C-31.1917 239.277 -31.6521 239.164 -32.1043 239.024L-32.1655 239.005L-32.1764 238.942C-32.4237 237.532 -32.3516 236.085 -31.9653 234.707C-31.579 233.33 -30.8884 232.057 -29.9449 230.984Z" fill="black"/>
<path d="M-40.622 169.464C-35.0083 163.999 -31.7971 156.097 -31.7971 147.76C-31.7971 147.705 -31.7971 147.65 -31.7975 147.595L-31.7979 147.44C-31.8 141.989 -30.3601 136.636 -27.6257 131.928L-27.4107 131.558L-27.1045 131.856C-24.7315 134.163 -21.9942 136.059 -19.0037 137.468C-21.3341 135.355 -23.2864 132.466 -25.0784 128.501L-25.1637 128.313L-25.0345 128.152C-22.2601 124.685 -18.7705 121.862 -14.8058 119.879C-10.8412 117.895 -6.49552 116.797 -2.06786 116.661C2.3598 116.524 6.76437 117.352 10.8428 119.088C14.9213 120.823 18.5768 123.426 21.558 126.715C23.376 128.739 25.5986 130.356 28.0808 131.46C30.563 132.564 33.2491 133.131 35.9639 133.123L36.3477 133.121C39.8928 133.121 43.4247 133.556 46.8646 134.416L47.127 134.482L47.1176 134.753C47.0291 137.32 47.2748 139.888 47.8483 142.391C48.0516 140.023 48.6254 137.701 49.5484 135.512L49.6659 135.22L49.9633 135.319C59.7204 138.57 68.0063 145.201 73.3373 154.026C78.6683 162.852 80.6964 173.294 79.0582 183.483C77.4201 193.672 72.2229 202.944 64.397 209.637C56.5712 216.329 46.628 220.007 36.3477 220.011C33.9151 220.011 31.4867 219.807 29.0877 219.403C15.0969 217.033 1.65675 217.645 -10.8591 221.22C-13.6143 222.004 -16.4648 222.401 -19.3287 222.399C-19.816 222.399 -20.3208 222.386 -20.8288 222.361L-21.4174 222.333L-21.0908 221.84C-20.1308 220.364 -18.9901 219.014 -17.6954 217.822C-19.9994 218.9 -22.1545 220.274 -24.1066 221.908L-24.2239 222.006L-24.3754 221.982C-29.9792 221.046 -35.2137 218.565 -39.4949 214.816C-43.776 211.067 -46.9354 206.197 -48.6204 200.75C-50.3054 195.303 -50.4498 189.494 -49.0375 183.969C-47.6251 178.445 -44.7116 173.423 -40.622 169.464Z" fill="#3D5056"/>
<g opacity="0.15">
<path d="M-40.622 169.464C-39.1465 168.023 -37.8353 166.422 -36.7128 164.689C-38.7231 168.989 -39.7142 173.698 -39.6088 178.447C-39.5033 183.195 -38.304 187.855 -36.1048 192.06C-33.9057 196.266 -30.7665 199.903 -26.9331 202.687C-23.0998 205.47 -18.6764 207.325 -14.0097 208.105L-13.8582 208.13L-13.741 208.032C-11.7889 206.398 -9.6338 205.024 -7.32974 203.946C-8.62445 205.138 -9.76516 206.488 -10.7251 207.964L-11.0517 208.457L-10.4632 208.485C-9.95515 208.51 -9.45033 208.523 -8.96306 208.523C-6.0991 208.525 -3.24866 208.128 -0.493416 207.344C12.0224 203.769 25.4626 203.157 39.4534 205.526C41.8524 205.931 44.2808 206.135 46.7134 206.135C57.317 206.143 67.5512 202.224 75.457 195.13C71.9502 202.567 66.4139 208.852 59.4912 213.256C52.5684 217.66 44.5433 220.003 36.3477 220.011C33.9151 220.011 31.4867 219.807 29.0877 219.402C15.0969 217.033 1.65676 217.645 -10.8591 221.22C-13.6143 222.004 -16.4648 222.401 -19.3287 222.399C-19.816 222.399 -20.3208 222.386 -20.8288 222.361L-21.4174 222.333L-21.0908 221.84C-20.1308 220.364 -18.9901 219.014 -17.6954 217.822C-19.9995 218.9 -22.1545 220.274 -24.1066 221.908L-24.2239 222.006L-24.3754 221.982C-29.9792 221.046 -35.2137 218.565 -39.4949 214.816C-43.776 211.067 -46.9354 206.197 -48.6204 200.75C-50.3054 195.303 -50.4498 189.494 -49.0375 183.969C-47.6251 178.445 -44.7116 173.423 -40.622 169.464Z" fill="black"/>
</g>
<path d="M157.206 85.8672C158.449 85.8672 159.457 84.8555 159.457 83.6076C159.457 82.3596 158.449 81.3479 157.206 81.3479C155.963 81.3479 154.956 82.3596 154.956 83.6076C154.956 84.8555 155.963 85.8672 157.206 85.8672Z" fill="white"/>
<path d="M325.557 139.195C326.303 139.195 326.908 138.588 326.908 137.84C326.908 137.091 326.303 136.484 325.557 136.484C324.812 136.484 324.207 137.091 324.207 137.84C324.207 138.588 324.812 139.195 325.557 139.195Z" fill="white"/>
<path d="M351.665 78.1845C352.411 78.1845 353.016 77.5775 353.016 76.8287C353.016 76.0799 352.411 75.4729 351.665 75.4729C350.919 75.4729 350.315 76.0799 350.315 76.8287C350.315 77.5775 350.919 78.1845 351.665 78.1845Z" fill="white"/>
<path d="M109.942 37.5104C110.688 37.5104 111.292 36.9034 111.292 36.1546C111.292 35.4058 110.688 34.7988 109.942 34.7988C109.196 34.7988 108.591 35.4058 108.591 36.1546C108.591 36.9034 109.196 37.5104 109.942 37.5104Z" fill="white"/>
<path d="M96.4377 92.1943C97.1835 92.1943 97.7881 91.5873 97.7881 90.8385C97.7881 90.0897 97.1835 89.4827 96.4377 89.4827C95.6919 89.4827 95.0873 90.0897 95.0873 90.8385C95.0873 91.5873 95.6919 92.1943 96.4377 92.1943Z" fill="white"/>
<path d="M30.7177 78.1845C31.4635 78.1845 32.0681 77.5775 32.0681 76.8287C32.0681 76.0799 31.4635 75.4729 30.7177 75.4729C29.9719 75.4729 29.3673 76.0799 29.3673 76.8287C29.3673 77.5775 29.9719 78.1845 30.7177 78.1845Z" fill="white"/>
<path d="M263.439 89.4828C264.184 89.4828 264.789 88.8758 264.789 88.127C264.789 87.3783 264.184 86.7712 263.439 86.7712C262.693 86.7712 262.088 87.3783 262.088 88.127C262.088 88.8758 262.693 89.4828 263.439 89.4828Z" fill="white"/>
<path d="M401.63 45.6452C402.376 45.6452 402.981 45.0382 402.981 44.2894C402.981 43.5406 402.376 42.9336 401.63 42.9336C400.885 42.9336 400.28 43.5406 400.28 44.2894C400.28 45.0382 400.885 45.6452 401.63 45.6452Z" fill="white"/>
<path d="M85.9946 164.533C84.2843 161.354 84.0455 157.187 86.1455 154.252C87.1842 158.041 89.5241 161.338 92.7513 163.562C93.999 164.415 95.4752 165.233 95.902 166.686C96.1266 167.613 95.9882 168.591 95.5155 169.418C95.0437 170.235 94.4696 170.987 93.8073 171.657L93.7468 171.885C90.6505 170.043 87.7049 167.712 85.9946 164.533Z" fill="#3D5056"/>
<path d="M347.974 254.468C346.264 251.288 346.025 247.121 348.125 244.187C349.164 247.975 351.504 251.273 354.731 253.496C355.979 254.349 357.455 255.167 357.882 256.621C358.106 257.548 357.968 258.525 357.495 259.353C357.023 260.169 356.449 260.922 355.787 261.592L355.726 261.819C352.63 259.977 349.685 257.647 347.974 254.468Z" fill="#3D5056"/>
<path d="M204.381 180.803C202.67 177.623 202.431 173.456 204.532 170.522C205.57 174.31 207.91 177.608 211.137 179.831C212.385 180.684 213.861 181.502 214.288 182.956C214.513 183.883 214.374 184.86 213.902 185.688C213.43 186.504 212.856 187.257 212.193 187.927L212.133 188.154C209.037 186.312 206.091 183.982 204.381 180.803Z" fill="#3D5056"/>
<path d="M67.539 233.227C65.8287 230.048 65.5899 225.881 67.69 222.946C68.7286 226.735 71.0685 230.032 74.2958 232.256C75.5435 233.108 77.0196 233.927 77.4465 235.38C77.671 236.307 77.5327 237.285 77.06 238.112C76.5881 238.929 76.014 239.681 75.3517 240.351L75.2912 240.579C72.195 238.736 69.2494 236.406 67.539 233.227Z" fill="#3D5056"/>
<path d="M50.4338 272.093C48.7235 268.914 48.4847 264.747 50.5847 261.812C51.6234 265.601 53.9633 268.899 57.1905 271.122C58.4382 271.975 59.9144 272.793 60.3413 274.246C60.5658 275.173 60.4274 276.151 59.9547 276.978C59.4829 277.795 58.9088 278.547 58.2465 279.217L58.186 279.445C55.0897 277.603 52.1441 275.272 50.4338 272.093Z" fill="#3D5056"/>
<path d="M334.56 30.7314H329.609V296.92H334.56V30.7314Z" fill="#3D5056"/>
<path d="M332.309 9.03857H332.309C323.36 9.03857 316.104 16.3227 316.104 25.3081V25.3082C316.104 34.2936 323.36 41.5778 332.309 41.5778C341.259 41.5778 348.514 34.2936 348.514 25.3082V25.3081C348.514 16.3227 341.259 9.03857 332.309 9.03857Z" fill="#FF6582"/>
<path d="M126.364 169.312C126.364 174.499 131.998 179.109 137.165 179.109C142.331 179.109 145.074 174.499 145.074 169.312C145.074 166.821 144.088 164.432 142.334 162.671C140.58 160.91 138.2 159.92 135.719 159.92C133.238 159.92 130.859 160.91 129.104 162.671C127.35 164.432 126.364 166.821 126.364 169.312Z" fill="#2E3C41"/>
<path d="M129.366 218.957L146.74 218.286L147.742 200.172H127.696L129.366 218.957Z" fill="#FFB8B8"/>
<path d="M118.339 231.387C118.641 231.113 118.879 230.776 119.036 230.399C119.194 230.023 119.268 229.616 119.252 229.208C119.237 228.8 119.132 228.4 118.946 228.037C118.76 227.674 118.496 227.356 118.175 227.106L121.329 217.696L116.36 219.014L114.127 227.748C113.744 228.319 113.584 229.01 113.675 229.692C113.766 230.373 114.104 230.997 114.623 231.446C115.142 231.895 115.807 232.136 116.492 232.126C117.177 232.115 117.834 231.852 118.339 231.387Z" fill="#FFB6B6"/>
<path d="M137.148 179.111C140.802 179.111 143.764 176.138 143.764 172.469C143.764 168.8 140.802 165.826 137.148 165.826C133.494 165.826 130.532 168.8 130.532 172.469C130.532 176.138 133.494 179.111 137.148 179.111Z" fill="#FFB8B8"/>
<path d="M137.311 171.8L132.48 171.672C132.361 171.668 132.245 171.634 132.144 171.571C132.043 171.509 131.96 171.421 131.903 171.316L130.288 168.308C130.213 168.168 130.189 168.005 130.222 167.848C130.254 167.692 130.341 167.552 130.466 167.453L136.788 162.492C136.866 162.43 136.958 162.386 137.056 162.364C137.154 162.342 137.255 162.343 137.353 162.365L142.458 163.533C142.576 163.56 142.684 163.618 142.771 163.701C142.859 163.784 142.923 163.888 142.956 164.004L144.956 170.917C144.986 171.02 144.991 171.13 144.97 171.236C144.949 171.342 144.904 171.441 144.837 171.526C144.77 171.611 144.685 171.678 144.587 171.723C144.489 171.768 144.382 171.788 144.274 171.783L141.771 171.657C141.636 171.65 141.505 171.601 141.397 171.519C141.289 171.436 141.208 171.322 141.165 171.193L141.061 170.877C141.055 170.859 141.043 170.844 141.027 170.835C141.012 170.825 140.993 170.821 140.975 170.824C140.956 170.827 140.94 170.837 140.928 170.851C140.916 170.865 140.909 170.883 140.909 170.902C140.909 170.993 140.89 171.084 140.854 171.169C140.818 171.253 140.765 171.329 140.699 171.392C140.633 171.456 140.555 171.505 140.469 171.537C140.383 171.569 140.292 171.583 140.201 171.578L139.372 171.537C139.222 171.53 139.078 171.472 138.964 171.373C138.85 171.275 138.773 171.141 138.744 170.992L138.386 169.188C138.383 169.17 138.373 169.153 138.358 169.142C138.343 169.13 138.325 169.124 138.307 169.125C138.288 169.126 138.27 169.133 138.257 169.146C138.243 169.158 138.235 169.176 138.232 169.194L137.999 171.202C137.98 171.367 137.902 171.519 137.778 171.63C137.655 171.74 137.495 171.801 137.329 171.801L137.311 171.8Z" fill="#2E3C41"/>
<path d="M132.49 180.811L141.044 180.925L143.828 184.474L148.31 185.535L149.475 192.294C150.057 195.673 149.439 197.812 147.728 200.78L147.523 206.618L147.75 207.031C147.862 207.235 147.895 207.474 147.842 207.701C147.79 207.928 147.656 208.128 147.466 208.262C147.626 208.667 147.645 209.116 147.519 209.534L147.408 209.9C147.408 209.9 147.089 212.459 129.028 209.768C128.645 209.711 128.291 209.53 128.019 209.253C127.748 208.976 127.573 208.617 127.523 208.232C127.327 208.033 127.197 207.778 127.153 207.502C127.109 207.226 127.152 206.943 127.277 206.693L127.314 206.619L127.128 206.4C126.922 206.156 126.802 205.85 126.789 205.53C126.776 205.21 126.87 204.895 127.056 204.635L124.46 185.991L129.822 184.315L132.49 180.811Z" fill="#2E3C41"/>
<path d="M126.601 187.776L124.46 185.991C124.46 185.991 122.556 186.556 121.226 190.321C119.897 194.086 115.334 222.647 115.334 222.647L120.68 219.963L128.26 198.979L126.601 187.776Z" fill="#2E3C41"/>
<path d="M174.158 218.182C173.756 218.243 173.345 218.214 172.955 218.097C172.565 217.981 172.206 217.78 171.901 217.509C171.597 217.238 171.356 216.903 171.194 216.528C171.032 216.153 170.955 215.747 170.966 215.339L161.72 211.817L165.887 208.798L174.029 212.605C174.711 212.67 175.345 212.984 175.812 213.487C176.278 213.99 176.545 214.648 176.561 215.336C176.577 216.023 176.341 216.693 175.899 217.217C175.456 217.742 174.837 218.085 174.158 218.182Z" fill="#FFB6B6"/>
<path d="M145.827 187.613L147.279 185.229C147.279 185.229 149.263 185.146 151.733 188.277C153 189.882 161.208 203.65 161.208 203.65L168.799 210.002L162.584 212.231L155.259 209.111L147.047 195.518L145.827 187.613Z" fill="#2E3C41"/>
<path d="M146.059 301.353H150.193L152.16 285.344L146.058 285.344L146.059 301.353Z" fill="#FFB6B6"/>
<path d="M109.869 298.773L113.87 299.819L119.795 284.825L113.891 283.28L109.869 298.773Z" fill="#FFB6B6"/>
<path d="M145.034 299.306L151.569 298.914V301.725L157.782 306.034C158.089 306.246 158.32 306.552 158.442 306.906C158.564 307.26 158.569 307.644 158.458 308.001C158.347 308.359 158.125 308.671 157.825 308.893C157.525 309.115 157.161 309.235 156.788 309.235H149.008L147.667 306.454L147.143 309.235H144.21L145.034 299.306Z" fill="#2E3C41"/>
<path d="M109.029 296.437L115.451 297.713L114.745 300.433L119.675 306.175C119.918 306.459 120.065 306.813 120.094 307.186C120.123 307.56 120.032 307.932 119.835 308.25C119.638 308.568 119.344 308.814 118.998 308.953C118.651 309.092 118.27 309.115 117.909 309.021L110.38 307.051L109.781 304.02L108.576 306.578L105.737 305.835L109.029 296.437Z" fill="#2E3C41"/>
<path d="M110.376 288.704L122.495 263.699L123.446 234.101C120.823 229.211 128.547 218.422 128.547 218.422V214.244L147.416 217.818C151.275 228.386 153.147 239.582 152.935 250.836L152.175 291.293H152.413C152.61 291.293 152.804 291.331 152.985 291.406C153.167 291.481 153.332 291.592 153.47 291.731C153.609 291.87 153.719 292.035 153.795 292.217C153.87 292.399 153.908 292.594 153.908 292.791C153.908 292.988 153.87 293.183 153.795 293.365C153.719 293.547 153.609 293.712 153.47 293.852C153.332 293.991 153.167 294.101 152.985 294.176C152.804 294.251 152.61 294.29 152.413 294.29H144.952C144.756 294.29 144.561 294.251 144.38 294.176C144.199 294.101 144.034 293.991 143.895 293.852C143.756 293.712 143.646 293.547 143.571 293.365C143.496 293.183 143.457 292.988 143.457 292.791C143.457 292.594 143.496 292.399 143.571 292.217C143.646 292.035 143.756 291.87 143.895 291.731C144.034 291.592 144.199 291.481 144.38 291.406C144.561 291.331 144.756 291.293 144.952 291.293H145.144L139.788 239.825L133.559 265.223L118.508 288.608C118.892 288.638 119.249 288.816 119.505 289.105C119.761 289.394 119.895 289.772 119.88 290.158C119.864 290.544 119.7 290.91 119.422 291.177C119.144 291.445 118.774 291.594 118.388 291.593H110.927C110.58 291.593 110.244 291.472 109.976 291.25C109.708 291.028 109.526 290.719 109.461 290.377C109.396 290.035 109.452 289.681 109.619 289.375C109.786 289.07 110.054 288.833 110.376 288.704Z" fill="#2E3C41"/>
<path d="M110.212 170.288C113 167.549 114.755 163.948 117.064 160.792C119.373 157.636 122.625 154.744 126.522 154.569C127.819 154.472 129.112 154.81 130.197 155.531C130.732 155.898 131.162 156.397 131.446 156.981C131.731 157.564 131.86 158.212 131.82 158.861C132.231 157.701 134.069 157.439 134.785 158.439C135.501 159.438 134.67 161.105 133.443 161.127L133.323 160.65C132.718 161.566 131.936 162.351 131.023 162.959C130.111 163.567 129.087 163.986 128.011 164.191C127.783 164.232 127.548 164.213 127.33 164.135C127.111 164.058 126.916 163.925 126.764 163.75C126.612 163.574 126.508 163.362 126.462 163.134C126.415 162.906 126.429 162.67 126.501 162.449C122.29 163.287 123.627 171.172 121.124 174.673C118.621 178.174 111.467 177.835 107.246 178.621C103.17 179.38 99.2075 177.108 95.6781 174.925C98.2926 175.324 100.963 175.113 103.484 174.309C106.004 173.505 108.306 172.129 110.212 170.288Z" fill="#2E3C41"/>
<path d="M267.729 265.468L255.027 259.842V255.005L259.554 254.98C260.256 254.976 260.94 254.751 261.508 254.337C262.077 253.923 262.502 253.341 262.724 252.672L265.904 243.094C266.073 242.586 266.119 242.046 266.038 241.517C265.958 240.989 265.754 240.487 265.442 240.053C265.131 239.619 264.721 239.265 264.247 239.022C263.773 238.778 263.247 238.651 262.715 238.651H255.027V234.15H264.678C265.439 234.15 266.177 233.891 266.772 233.415C267.367 232.939 267.784 232.275 267.955 231.531L270.145 221.966C270.258 221.472 270.259 220.958 270.147 220.463C270.035 219.968 269.813 219.505 269.498 219.108C269.183 218.71 268.783 218.39 268.328 218.169C267.873 217.949 267.374 217.835 266.868 217.835H255.027V216.709C255.027 216.113 254.791 215.54 254.371 215.118C253.95 214.696 253.38 214.459 252.786 214.459C252.191 214.459 251.621 214.696 251.201 215.118C250.78 215.54 250.544 216.113 250.544 216.709V217.835H171.159V216.709C171.159 216.113 170.923 215.54 170.503 215.118C170.082 214.696 169.512 214.459 168.918 214.459C168.323 214.459 167.753 214.696 167.333 215.118C166.913 215.54 166.676 216.113 166.676 216.709V217.835H157.264C156.758 217.835 156.259 217.949 155.804 218.169C155.348 218.39 154.948 218.71 154.633 219.108C154.318 219.505 154.097 219.968 153.985 220.463C153.873 220.958 153.874 221.472 153.987 221.966L156.177 231.531C156.347 232.275 156.764 232.939 157.359 233.415C157.955 233.891 158.693 234.15 159.454 234.15H166.676V238.651H161.417C160.887 238.651 160.365 238.777 159.892 239.018C159.42 239.259 159.011 239.609 158.699 240.039C158.387 240.469 158.181 240.967 158.097 241.492C158.013 242.017 158.054 242.555 158.217 243.062L161.462 253.175C161.682 253.858 162.112 254.453 162.691 254.873C163.269 255.294 163.967 255.519 164.681 255.515L166.676 255.504V259.842L156.403 265.468C155.962 265.468 155.524 265.555 155.116 265.725C154.708 265.895 154.338 266.143 154.026 266.457C153.713 266.77 153.466 267.142 153.297 267.552C153.128 267.961 153.041 268.4 153.041 268.844C153.041 269.739 153.395 270.597 154.026 271.231C154.656 271.864 155.511 272.219 156.403 272.219H166.676V296.974C166.676 297.57 166.913 298.143 167.333 298.565C167.753 298.987 168.323 299.224 168.918 299.224C169.512 299.224 170.082 298.987 170.503 298.565C170.923 298.143 171.159 297.57 171.159 296.974V272.219H250.544V296.974C250.544 297.57 250.78 298.143 251.201 298.565C251.621 298.987 252.191 299.224 252.786 299.224C253.38 299.224 253.95 298.987 254.371 298.565C254.791 298.143 255.027 297.57 255.027 296.974V272.219H267.729C268.62 272.219 269.476 271.864 270.106 271.231C270.737 270.597 271.091 269.739 271.091 268.844C271.091 268.4 271.004 267.961 270.835 267.552C270.666 267.142 270.418 266.77 270.106 266.457C269.794 266.143 269.423 265.895 269.015 265.725C268.607 265.555 268.17 265.468 267.729 265.468ZM171.159 234.15H250.544V238.651H171.159V234.15ZM171.159 259.842V255.478L250.544 255.031V259.842L171.159 259.842Z" fill="#3D5056"/>
</g>
</g>
<defs>
<clipPath id="clip0_138_592">
<rect width="417" height="349" fill="white"/>
</clipPath>
<clipPath id="clip1_138_592">
<rect width="516" height="362" fill="white" transform="translate(-50)"/>
</clipPath>
</defs>
</svg>
